{
    "root_node": {
        "_class": "box",
        "anchor": [ 0, 0 ],
        "background_color": "#ccc5b8",
        "location": [ 0, 0 ],
        "name": "simple_box_ctl",
        "size": [ 1280, 720 ]
    }
}